{"page":1,"total_results":10000,"total_pages":500,"results":[{"popularity":10.867,"vote_count":240,"video":false,"poster_path":"\/dAol6pkKEX7zM1rICqPgUWmas2S.jpg","id":17532,"adult":false,"backdrop_path":"\/scVLRx5GWyznYoBMUo8aXxgLot9.jpg","original_language":"en","original_title":"S. Darko","genre_ids":[80,9648,878,53],"title":"S. Darko","vote_average":3.9,"overview":"S. Darko follows Samantha Darko, the younger sister of Donnie, the protagonist of Donnie Darko, and her friend Corey. On their way to California, their car breaks down, forcing them to wait in a small town until it is fixed. While there, Samantha begins to have dreams that warn her of the end of the universe.","release_date":"2009-04-28"},{"popularity":7.095,"id":426265,"video":false,"vote_count":78,"vote_average":6.2,"title":"Burning Sands","release_date":"2017-01-24","original_language":"en","original_title":"Burning Sands","genre_ids":[18],"backdrop_path":"\/ieaqmpp6W8UGdvTVclBrQctLrgM.jpg","adult":false,"overview":"Deep into Hell Week, a favored pledgee is torn between honoring his code of silence or standing up against the intensifying violence of underground hazing.","poster_path":"\/nTOithYdgE4jAdSIuH1nAaxkmzY.jpg"},{"popularity":10.482,"vote_count":681,"video":false,"poster_path":"\/yo49x6Jhr1ecCjy1ByFqwAbtARJ.jpg","id":84348,"adult":false,"backdrop_path":"\/xAC9kXLxUHpdCkISgYcLzYrxIQR.jpg","original_language":"en","original_title":"V\/H\/S","genre_ids":[27,53],"title":"V\/H\/S","vote_average":5.9,"overview":"When a group of misfits is hired by an unknown third party to burglarize a desolate house and acquire a rare VHS tape, they discover more found footage than they bargained for.","release_date":"2012-07-28"},{"popularity":9.137,"vote_count":0,"video":false,"poster_path":"\/Acju31DasxzYWhOyHhHs7g4ldyn.jpg","id":631132,"adult":false,"backdrop_path":"\/hhy9BkuikwnaUccHM4F6NPrZ2R7.jpg","original_language":"ja","original_title":"ゴブリンスレイヤー GOBLIN`S CROWN","genre_ids":[28,12,16,18,14],"title":"Goblin Slayer: Goblin's Crown","vote_average":0,"overview":"Sequel of the TV series.","release_date":"2020-02-01"},{"popularity":6.662,"vote_count":366,"video":false,"poster_path":"\/lX5XyaUQ4yXRY1knq5N8IKj6Ua4.jpg","id":13492,"adult":false,"backdrop_path":"\/797NHoM5WWad5h0gw8ipVFM6YRs.jpg","original_language":"fr","original_title":"Frontière(s)","genre_ids":[28,18,27,53],"title":"Frontier(s)","vote_average":6.1,"overview":"A gang of young thieves flee Paris during the violent aftermath of a political election, only to hole up at an Inn run by neo-Nazis.","release_date":"2007-07-01"},{"popularity":3.514,"vote_count":14,"video":false,"poster_path":"\/g8GZW491qCPHm8jpL0ae14zpdtn.jpg","id":85224,"adult":false,"backdrop_path":"\/lNswxUchbuUV0C0NgvxfRRldQGC.jpg","original_language":"en","original_title":"Gas-s-s-s!","genre_ids":[35,18,878],"title":"Gas-s-s-s!","vote_average":5,"overview":"A gas is let loose upon the world that kills anyone over 25 years old.","release_date":"1970-09-04"},{"popularity":14.592,"vote_count":8229,"video":false,"poster_path":"\/kgLTB53HinftRRwhft7yrUOclDC.jpg","id":162,"adult":false,"backdrop_path":"\/jSL39cn3irkniMXthexHksr0ksA.jpg","original_language":"en","original_title":"Edward Scissorhands","genre_ids":[18,14,10749],"title":"Edward Scissorhands","vote_average":7.7,"overview":"A small suburban town receives a visit from a castaway unfinished science experiment named Edward.","release_date":"1990-12-05"},{"popularity":28.764,"vote_count":9061,"video":false,"poster_path":"\/yPisjyLweCl1tbgwgtzBCNCBle.jpg","id":424,"adult":false,"backdrop_path":"\/cTNYRUTXkBgPH3wP3kmPUB5U6dA.jpg","original_language":"en","original_title":"Schindler's List","genre_ids":[18,36,10752],"title":"Schindler's List","vote_average":8.6,"overview":"The true story of how businessman Oskar Schindler saved over a thousand Jewish lives from the Nazis while they worked as slaves in his factory during World War II.","release_date":"1993-11-30"},{"popularity":6.72,"vote_count":53,"video":false,"poster_path":"\/7XderqM5oxzbWanJq6FLvpmFLdA.jpg","id":19380,"adult":false,"backdrop_path":"\/3Y5rAC3q3U0auyvSGxtNdtxSwGU.jpg","original_language":"en","original_title":"White Sands","genre_ids":[28,80,18,9648,53],"title":"White Sands","vote_average":5.7,"overview":"A small southwestern town sheriff finds a body in the desert with a suitcase and $500,000. He impersonates the man and stumbles into an FBI investigation.","release_date":"1992-04-24"},{"popularity":8.471,"vote_count":494,"video":false,"poster_path":"\/t1lILqp0Yfg0SncPyEw0DtR72G5.jpg","id":159117,"adult":false,"backdrop_path":"\/c8xttOCoBVRyBgxKwkSRgVKCV2y.jpg","original_language":"en","original_title":"V\/H\/S\/2","genre_ids":[27,53],"title":"V\/H\/S\/2","vote_average":6.1,"overview":"Inside a darkened house looms a column of TVs littered with VHS tapes, a pagan shrine to forgotten analog gods. The screens crackle and pop endlessly with monochrome vistas of static white noise permeating the brain and fogging concentration. But you must fight the urge to relax: this is no mere movie night. Those obsolete spools contain more than just magnetic tape. They are imprinted with the very soul of evil.","release_date":"2013-06-06"},{"popularity":11.604,"vote_count":483,"video":false,"poster_path":"\/cscyvJ4nDgbqewrttPXZ5EYOdwa.jpg","id":651,"adult":false,"backdrop_path":"\/l5YH6TCYi2mgZwXbDjF71iA9UBP.jpg","original_language":"en","original_title":"M*A*S*H","genre_ids":[35,18,10752],"title":"M*A*S*H","vote_average":7.1,"overview":"The staff of a Korean War field hospital use humor and high jinks to keep their sanity in the face of the horror of war.","release_date":"1970-01-24"},{"popularity":5.076,"vote_count":46,"video":false,"poster_path":"\/85Es9wILCehlEo95PgOkSDqygSM.jpg","id":14977,"adult":false,"backdrop_path":"\/4Zi79z3r6xnYCa4KuoAWCPSTkVQ.jpg","original_language":"en","original_title":"Red Sands","genre_ids":[28,12,18,27,10752],"title":"Red Sands","vote_average":4,"overview":"During a mission in the Middle East, a group of US soldiers destroy a statue out of boredom only to then be visited by something the next day.","release_date":"2009-02-24"},{"popularity":15.389,"vote_count":4467,"video":false,"poster_path":"\/dtjz9Z6MTsuFyrzqdwVB4dgHENA.jpg","id":9543,"adult":false,"backdrop_path":"\/2JK9IllXGo7V2PZzLmclkB5Cf8k.jpg","original_language":"en","original_title":"Prince of Persia: The Sands of Time","genre_ids":[28,12,14,10749],"title":"Prince of Persia: The Sands of Time","vote_average":6.2,"overview":"A rogue prince reluctantly joins forces with a mysterious princess and together, they race against dark forces to safeguard an ancient dagger capable of releasing the Sands of Time – gift from the gods that can reverse time and allow its possessor to rule the world.","release_date":"2010-05-19"},{"popularity":8.807,"vote_count":605,"video":false,"poster_path":"\/yAFn7Bc80pF98DOxRs85d78jWbD.jpg","id":3133,"adult":false,"backdrop_path":"\/czf6PpgXD71D0OAbyAdVXK0PEQj.jpg","original_language":"en","original_title":"Badlands","genre_ids":[80],"title":"Badlands","vote_average":7.6,"overview":"Dramatization of the Starkweather-Fugate killing spree of the 1950s, in which a teenage girl and her twenty-something boyfriend slaughtered her entire family and several others in the Dakota badlands.","release_date":"1973-10-15"},{"popularity":7.8,"vote_count":289,"video":false,"poster_path":"\/e0z9RMcs3dstmNllNqdsoSfzMTh.jpg","id":267806,"adult":false,"backdrop_path":"\/z1RXq7GvPcRD4oDKmlmxV2kCz8Z.jpg","original_language":"en","original_title":"V\/H\/S: Viral","genre_ids":[27,53],"title":"V\/H\/S: Viral","vote_average":4.4,"overview":"V\/H\/S: VIRAL's segments include the story of a deranged illusionist who obtains a magical object of great power, a homemade machine that opens a door to a parallel world, teenage skaters that unwillingly become targets of a Mexican death cult ritual, and a sinister, shadowy organization that is tracking a serial killer. The segments are tied together by the story of a group of fame-obsessed teens following a violent car chase in LA that unwittingly become stars of the next internet sensation.","release_date":"2014-10-23"},{"popularity":10.851,"vote_count":406,"video":false,"poster_path":"\/c9buG2jVRgAu68E4D4jpwlgqhO1.jpg","id":390054,"adult":false,"backdrop_path":"\/rBAt0TQnZrtgjcGLAjywCo8E9Oe.jpg","original_language":"en","original_title":"Sand Castle","genre_ids":[18,10752],"title":"Sand Castle","vote_average":6.3,"overview":"Set during the occupation of Iraq, a squad of U.S. soldiers try to protect a small village.","release_date":"2017-04-21"},{"popularity":18.25,"vote_count":321,"video":false,"poster_path":"\/1DPUFG6QnGqzpvEaDEv7TaepycM.jpg","id":458897,"adult":false,"backdrop_path":"\/a0xTB1vBxMGt6LGG4N7k1wO9lfL.jpg","original_language":"en","original_title":"Charlie's Angels","genre_ids":[28,12,35],"title":"Charlie's Angels","vote_average":6.6,"overview":"When a systems engineer blows the whistle on a dangerous technology, Charlie's Angels from across the globe are called into action, putting their lives on the line to protect society.","release_date":"2019-11-14"},{"popularity":85.49,"vote_count":3486,"video":false,"poster_path":"\/5CGjlz2vyBhW5xHW4eNOZIdgzYq.jpg","id":390043,"adult":false,"backdrop_path":"\/7KsqfXDECZMryX1Rv4RKsT7SIjQ.jpg","original_language":"en","original_title":"The Hitman's Bodyguard","genre_ids":[28,35],"title":"The Hitman's Bodyguard","vote_average":6.8,"overview":"The world top bodyguard gets a new client, a hit man who must testify at the International Court of Justice. They must put their differences aside and work together to make it to the trial on time.","release_date":"2017-08-16"},{"popularity":15.806,"vote_count":2594,"video":false,"poster_path":"\/eBzf9d09Vgq2HSVC4fIZm1QNQd.jpg","id":4327,"adult":false,"backdrop_path":"\/AfXk5IqMZuznjjvEkrQuzQ9A5U6.jpg","original_language":"en","original_title":"Charlie's Angels","genre_ids":[28,12,35,80,53],"title":"Charlie's Angels","vote_average":5.7,"overview":"Three women, detectives with a mysterious boss, retrieve stolen voice-ID software, using martial arts, tech skills, and sex appeal.","release_date":"2000-11-02"},{"popularity":5.054,"id":23816,"video":false,"vote_count":15,"vote_average":4.1,"title":"Sands of Oblivion","release_date":"2007-07-28","original_language":"en","original_title":"Sands of Oblivion","genre_ids":[10770,28,12,14],"backdrop_path":"\/ya4T2O76TVJq6QFkLDGw3fgTsrU.jpg","adult":false,"overview":"The film tells the story of a prop from the 1923 movie The Ten Commandments that was actually an authentic artifact from antiquity with cursed powers. In the modern day these resurface leading to murder and mayhem.","poster_path":"\/l0RSNRoILNciN6E5QDTyCqkOb3d.jpg"}]}