{"page":1,"total_results":217,"total_pages":11,"results":[{"original_name":"Star Trek: Picard","genre_ids":[10765],"name":"Star Trek: Picard","popularity":203.414,"origin_country":["US"],"vote_count":78,"first_air_date":"2020-01-23","backdrop_path":"\/mK286PAkhgLJqk5cO0BCmFLkNE7.jpg","original_language":"en","id":85949,"vote_average":8.2,"overview":"Set twenty years after the events of Star Trek Nemesis, we follow the now-retired Admiral Picard into the next chapter of his life.","poster_path":"\/nIlAKIrLKxOeoEnc0Urb65yNCp.jpg"},{"original_name":"Law & Order: Special Victims Unit","genre_ids":[80,18],"name":"Law & Order: Special Victims Unit","popularity":153.279,"origin_country":["US"],"vote_count":795,"first_air_date":"1999-09-20","backdrop_path":"\/kOvt2BOOwSAQCT8yo3pM3X2GXjh.jpg","original_language":"en","id":2734,"vote_average":6.5,"overview":"In the criminal justice system, sexually-based offenses are considered especially heinous. In New York City, the dedicated detectives who investigate these vicious felonies are members of an elite squad known as the Special Victims Unit. These are their stories.","poster_path":"\/6t6r1VGQTTQecN4V0sZeqsmdU9g.jpg"},{"original_name":"Vikings","genre_ids":[18,10759],"name":"Vikings","popularity":130.238,"origin_country":["CA"],"vote_count":1940,"first_air_date":"2013-03-03","backdrop_path":"\/aq2yEMgRQBPfRkrO0Repo2qhUAT.jpg","original_language":"en","id":44217,"vote_average":7.5,"overview":"The adventures of Ragnar Lothbrok, the greatest hero of his age. The series tells the sagas of Ragnar's band of Viking brothers and his family, as he rises to become King of the Viking tribes. As well as being a fearless warrior, Ragnar embodies the Norse traditions of devotion to the gods. Legend has it that he was a direct descendant of Odin, the god of war and warriors.","poster_path":"\/ff1zhqvwfS5HvRNcA5UFrH0PA2q.jpg"},{"original_name":"Grey's Anatomy","genre_ids":[18],"name":"Grey's Anatomy","popularity":89.562,"origin_country":["US"],"vote_count":1200,"first_air_date":"2005-03-27","backdrop_path":"\/edmk8xjGBsYVIf4QtLY9WMaMcXZ.jpg","original_language":"en","id":1416,"vote_average":6.5,"overview":"Follows the personal and professional lives of a group of doctors at Seattle’s Grey Sloan Memorial Hospital.","poster_path":"\/jnsvc7gCKocXnrTXF6p03cICTWb.jpg"},{"original_name":"Riverdale","genre_ids":[18,9648],"name":"Riverdale","popularity":74.673,"origin_country":["US"],"vote_count":824,"first_air_date":"2017-01-26","backdrop_path":"\/yVc41GMQw4yujjk6fuuAMMFTt8H.jpg","original_language":"en","id":69050,"vote_average":7.4,"overview":"Set in the present, the series offers a bold, subversive take on Archie, Betty, Veronica and their friends, exploring the surreality of small-town life, the darkness and weirdness bubbling beneath Riverdale’s wholesome facade.","poster_path":"\/4X7o1ssOEvp4BFLim1AZmPNcYbU.jpg"},{"original_name":"Legacies","genre_ids":[18,10765],"name":"Legacies","popularity":57.419,"origin_country":["US"],"vote_count":338,"first_air_date":"2018-10-25","backdrop_path":"\/tIYb76SgqjUJ6XLFwBrk4gvGNtn.jpg","original_language":"en","id":79460,"vote_average":8,"overview":"In a place where young witches, vampires, and werewolves are nurtured to be their best selves in spite of their worst impulses, Klaus Mikaelson’s daughter, 17-year-old Hope Mikaelson, Alaric Saltzman’s twins, Lizzie and Josie Saltzman, among others, come of age into heroes and villains at The Salvatore School for the Young and Gifted.","poster_path":"\/1Uhoi348GEg4DObGrVLNUqtKtdu.jpg"},{"original_name":"Chicago Fire","genre_ids":[18],"name":"Chicago Fire","popularity":78.686,"origin_country":["US"],"vote_count":345,"first_air_date":"2012-10-10","backdrop_path":"\/gdIFeiJGsywKt6scyILMZI1tMl4.jpg","original_language":"en","id":44006,"vote_average":7.7,"overview":"An edge-of-your-seat view into the lives of everyday heroes committed to one of America's noblest professions. For the firefighters, rescue squad and paramedics of Chicago Firehouse 51, no occupation is more stressful or dangerous, yet so rewarding and exhilarating. These courageous men and women are among the elite who forge headfirst into danger when everyone else is running the other way and whose actions make the difference between life and death.","poster_path":"\/g9aoiYLbE3IrDiMms5fU4lv6BR4.jpg"},{"original_name":"Criminal Minds","genre_ids":[80,18,9648],"name":"Criminal Minds","popularity":70.625,"origin_country":["US"],"vote_count":729,"first_air_date":"2005-09-22","backdrop_path":"\/mzyLxbwy5jOveyfsbC1OWGp78NV.jpg","original_language":"en","id":4057,"vote_average":7.4,"overview":"An elite team of FBI profilers analyze the country's most twisted criminal minds, anticipating their next moves before they strike again. The Behavioral Analysis Unit's most experienced agent is David Rossi, a founding member of the BAU who returns to help the team solve new cases.","poster_path":"\/7TCwgX7oQKxcWYEhSPRmaHe6ULN.jpg"},{"original_name":"Brooklyn Nine-Nine","genre_ids":[35,80],"name":"Brooklyn Nine-Nine","popularity":74.257,"origin_country":["US"],"vote_count":832,"first_air_date":"2013-09-17","backdrop_path":"\/vbLl9JL0SxemW5OyI9CzCQdlcX3.jpg","original_language":"en","id":48891,"vote_average":7.8,"overview":"A single-camera ensemble comedy following the lives of an eclectic group of detectives in a New York precinct, including one slacker who is forced to shape up when he gets a new boss.","poster_path":"\/dzj0oLZWe3qMgK4jlgdKWPVxxIx.jpg"},{"original_name":"Chicago P.D.","genre_ids":[80,18],"name":"Chicago P.D.","popularity":39.988,"origin_country":["US"],"vote_count":341,"first_air_date":"2014-01-08","backdrop_path":"\/euv0fNNFfOFVd314c17pup96Bgj.jpg","original_language":"en","id":58841,"vote_average":7.7,"overview":"A riveting police drama about the men and women of the Chicago Police Department's District 21 who put it all on the line to serve and protect their community. District 21 is made up of two distinctly different groups: the uniformed cops who patrol the beat and go head-to-head with the city's street crimes and the Intelligence Unit that combats the city's major offenses - organized crime, drug trafficking, high profile murders and beyond.","poster_path":"\/pYpstkuLMEWfIt9Lp69w4DAb6M4.jpg"},{"original_name":"The Daily Show with Trevor Noah","genre_ids":[35,10763],"name":"The Daily Show with Trevor Noah","popularity":49.551,"origin_country":["US"],"vote_count":264,"first_air_date":"1996-07-22","backdrop_path":"\/uyilhJ7MBLjiaQXboaEwe44Z0jA.jpg","original_language":"en","id":2224,"vote_average":6.4,"overview":"Trevor Noah and The World's Fakest News Team tackle the biggest stories in news, politics and pop culture.","poster_path":"\/oWAWlFM50hTeyS6LfW9i8SwYLZw.jpg"},{"original_name":"The Magicians","genre_ids":[18,14,27],"name":"The Magicians","popularity":46.788,"origin_country":["US"],"vote_count":443,"first_air_date":"2015-12-16","backdrop_path":"\/wcfErhzLmmeutxAMpbHlR0Naa2q.jpg","original_language":"en","id":64432,"vote_average":7.2,"overview":"Brakebills University is a secret institution specializing in magic. There, amidst an unorthodox education of spellcasting, a group of twenty-something friends soon discover that a magical fantasy world they read about as children is all too real— and poses grave danger to humanity.","poster_path":"\/A66dZN98BPEYeFQAhNdNCIXa57d.jpg"},{"original_name":"The Masked Singer","genre_ids":[10764],"name":"The Masked Singer","popularity":25.087,"origin_country":["US"],"vote_count":27,"first_air_date":"2019-01-02","backdrop_path":"\/oLD0Mdi8fw14RamNffSgxlFtoz9.jpg","original_language":"en","id":84910,"vote_average":9.4,"overview":"Celebrities compete in a singing competition with one major twist: each singer is shrouded from head to toe in an elaborate costume, complete with full face mask to conceal his or her identity. One singer will be eliminated each week, ultimately revealing his or her true identity.","poster_path":"\/xN2cRbIiHRCETRt9yzS4OwuuxC9.jpg"},{"original_name":"Mayday","genre_ids":[99,18],"name":"Mayday","popularity":31.621,"origin_country":["CA"],"vote_count":99,"first_air_date":"2003-09-03","backdrop_path":"\/nE4fKbVq1JY5dyauuAZSYcbh2hy.jpg","original_language":"en","id":90,"vote_average":7.8,"overview":"Revealing the dark truth that aviation safety improves one crash at a time, Mayday  investigates legendary aviation disasters to find out what went wrong and why.\n\nBased on cockpit voice recorders, accident reports and eyewitness accounts, every episode also features interviews, state-of-the-art CGI and gripping reenactments.","poster_path":"\/cazh5xGS5I5KVVVRSd2xt3lZXVo.jpg"},{"original_name":"Chicago Med","genre_ids":[18],"name":"Chicago Med","popularity":44.503,"origin_country":["US"],"vote_count":209,"first_air_date":"2015-11-17","backdrop_path":"\/qeVBKfi5B5ByQffWLC7oR6BWvdP.jpg","original_language":"en","id":62650,"vote_average":7.8,"overview":"An emotional thrill ride through the day-to-day chaos of the city's most explosive hospital and the courageous team of doctors who hold it together. They will tackle unique new cases inspired by topical events, forging fiery relationships in the pulse-pounding pandemonium of the emergency room.","poster_path":"\/8sWkBKCZ4FrzllsLjMQpiFxZWwM.jpg"},{"original_name":"Mom","genre_ids":[35,18],"name":"Mom","popularity":36.428,"origin_country":["US"],"vote_count":228,"first_air_date":"2013-09-23","backdrop_path":"\/q3WMUtu4h2mwgehn8F5481RFVej.jpg","original_language":"en","id":49011,"vote_average":6.9,"overview":"Aan irreverent and outrageous take on true family love‐and dysfunction. Newly sober single mom Christy struggles to raise two children in a world full of temptations and pitfalls. Testing her sobriety is her formerly estranged mother, now back in Christy's life and eager to share passive-aggressive insights into her daughter's many mistakes.","poster_path":"\/8jR5i2z51ymZMrehUgVHFlXUVcB.jpg"},{"original_name":"Australian Survivor","genre_ids":[10764],"name":"Australian Survivor","popularity":24.849,"origin_country":["AU"],"vote_count":9,"first_air_date":"2002-02-13","backdrop_path":"\/oFjerDnMc54beIY4wq8VeBaGJ8j.jpg","original_language":"en","id":10957,"vote_average":7.1,"overview":"Australian Survivor sees 24 tough and tenacious people marooned on a tropical island with little more than the clothes on their backs and the drive to be the sole survivor. Contestants are deprived of basic comforts and must build their own shelter, light their own fires, gather their own food and fend for themselves.","poster_path":"\/2DXd32Szzp6HwhLDcdUmQRNzvzj.jpg"},{"original_name":"プランダラ","genre_ids":[16,10759,10765],"name":"Plunderer","popularity":32.394,"origin_country":["JP"],"vote_count":6,"first_air_date":"2020-01-09","backdrop_path":"\/7BP3aJUCk8Iv20YFAqHcbXpTMwR.jpg","original_language":"ja","id":93149,"vote_average":7.2,"overview":"In a post-apocalyptic world dominated by the so-called \"Numbers,\" each human will have their identity branded with their own \"Count,\" which could define any number related to their life. May it be one's walked distance or amount of compliments given to them by others, this Count could lead them to the abyss when it has dropped to zero.\n\nIn the year 305 of the Alcian calendar, Hina has inherited a mission from her Mother, whose Count has depreciated to zero, to search for the Legendary Red Baron. In her adventure, she meets a half-masked swordsman named Licht who tries to hide his identity, as he is known as a degenerate for having an incredibly low Count.","poster_path":"\/xiV695sPlizxNmydomcfbmLDXfA.jpg"},{"original_name":"Station 19","genre_ids":[18],"name":"Station 19","popularity":31.797,"origin_country":["US"],"vote_count":94,"first_air_date":"2018-03-22","backdrop_path":"\/6pUgW7Idzw7bpHwBSglO32f2YI8.jpg","original_language":"en","id":76773,"vote_average":8.4,"overview":"A group of heroic firefighters at Seattle Fire Station 19—from captain to newest recruit—risk their lives and hearts both in the line of duty and off the clock. These brave men and women are like family, literally and figuratively, and together they put their own lives in jeopardy as first responders to save the lives of others.","poster_path":"\/o6IeciOOPViVUPORVGPtDF4DYER.jpg"},{"original_name":"痛いのは嫌なので防御力に極振りしたいと思います。","genre_ids":[16,35,10759,10765],"name":"BOFURI: I Don’t Want to Get Hurt, so I’ll Max Out My Defense.","popularity":24.561,"origin_country":["JP"],"vote_count":2,"first_air_date":"2020-01-08","backdrop_path":"\/fckcHUdW3oBsyt4H05xGmWFbZv9.jpg","original_language":"ja","id":96402,"vote_average":9.5,"overview":"Honjou Kaede is invited by her friend Shiramine Risa to play a virtual reality MMO game with her. While Kaede doesn't dislike games, what she really, truly dislikes is being in pain. She creates a character named Maple, and decides to put all her points in VIT to minimize pain. As a result, she moves slowly, can't use magic, and even a rabbit can get the best of her. But as it turns out, she acquires a skill known as \"Absolute Defense\" as a result of her pumping points into VIT, as well as a \"Counter Skill\" that works against special moves. Now, with her ability to nullify all damage, she goes on adventures.","poster_path":"\/eKr4p1jBL081BwqWJ1zywtJIqMF.jpg"}]}
